human SI transcriptomics
…
There are some extreme values log2FC >50, which is probably a division by 0 problem, since 2^50 ~ 1e15. We have emailed Daniela and Terezinha about this problem.

Genes with log2Fc larger than 10 are:

## # A tibble: 37 x 10
##    fileID concentration  time ensembl_gene_id baseMean log2FoldChange lfcSE
##    <chr>          <dbl> <dbl> <chr>              <dbl>          <dbl> <dbl>
##  1 1000u          1000    24 ENSG00000275719    21.4            30.0  3.77
##  2 1000u          1000    24 ENSG00000213442   759.            -14.9  3.28
##  3 1000u          1000    24 ENSG00000202198    13.5           -16.6  8.24
##  4 1000u          1000    24 ENSG00000279033     5.86           11.0  8.33
##  5 1000u          1000    24 ENSG00000260934     7.72           19.8  8.25
##  6 1000u          1000    48 ENSG00000213442   759.             55.5  3.25
##  7 1000u          1000    48 ENSG00000272540    11.6            23.6  2.41
##  8 1000u          1000    48 ENSG00000160683    52.4            23.6  3.09
##  9 1000u          1000    48 ENSG00000274226    17.2            27.8  5.12
## 10 1000u          1000    48 ENSG00000202198    13.5            40.9  8.25
## #  with 27 more rows, and 3 more variables: stat <dbl>, pvalue <dbl>,
## #   padj <dbl>
…
